4W_mcq_v2
…
news_M_df

# A tidytable: 695 × 9
   일자     언론사   text                  cat   키워드 ID     week press catSoc
   <chr>    <chr>    <chr>                 <chr> <chr>  <fct> <dbl> <chr> <chr> 
 1 20220923 중앙일보 "[서소문 포럼] 손흥…  스포… 손흥…  1        38 조중  기타  
 2 20220921 중앙일보 "[월간중앙] 인터뷰 |… 정치  인터…  2        38 조중  정치면
 3 20220921 중앙일보 "[사설] 여혐 논쟁 접… 사회  여혐,… 3        38 조중  사회면
 4 20220919 한겨레   "김현숙 여가부 장관,… 사회  장관,… 4        38 경한  사회면
 5 20220919 경향신문 "‘쇳밥일지’ 천현우 “… 사회  쇳밥,… 5        38 경한  사회면
 6 20220917 한겨레   "“여가부 장관의 ‘성…  사회  여가…  6        38 경한  사회면
 7 20220907 중앙일보 "피다가 꺾인 청년정…  정치  청년,… 7        36 조중  정치면
 8 20220901 중앙일보 "'文 골수지지' 손절…  정치  골수,… 8        35 조중  정치면
 9 20220831 조선일보 "[기자의 시각] 지리…  정치  지리…  9        35 조중  정치면
10 20220830 한겨레   "20대 남-녀 갈라놓은… 사회  20대,… 10       35 경한  사회면
# … with 685 more rows
…
ko_mfd_df # 도덕기반 전체 

# A tidytable: 695 × 15
   care_Total   care care_neu fair_Total    fair fair_neu loyal_Total   loyal
        <dbl>  <dbl>    <dbl>      <dbl>   <dbl>    <dbl>       <dbl>   <dbl>
 1        298 0.0369    0.963        298 0.00671    0.993         298 0.0436 
 2        787 0.0280    0.972        787 0.00762    0.992         787 0.0648 
 3        193 0.0570    0.943        193 0.0725     0.927         193 0.0415 
 4        337 0.0682    0.932        337 0.0564     0.944         336 0.0446 
 5        972 0.0288    0.971        972 0.0134     0.987         972 0.0247 
 6        448 0.0491    0.951        448 0.0580     0.942         448 0.0446 
 7        414 0.0386    0.961        416 0.0264     0.974         414 0.0483 
 8        407 0.0246    0.975        412 0.0461     0.954         407 0.0737 
 9        196 0.0102    0.990        197 0.0203     0.980         196 0.00510
10        258 0.0155    0.984        258 0.0698     0.930         258 0.0465 
# … with 685 more rows, and 7 more variables: loyal_neu <dbl>,
#   autho_Total <dbl>, autho <dbl>, autho_neu <dbl>, sanct_Total <dbl>,
#   sanct_neu <dbl>, sanct <dbl>

pnko_mfd_df # 감정+도덕기반 전체

# A tidytable: 695 × 28
   일자     언론사   text   cat   키워드 ID     week press catSoc Total negative
   <chr>    <chr>    <chr>  <chr> <chr>  <fct> <dbl> <chr> <chr>  <dbl>    <dbl>
 1 20220923 중앙일보 "[서…  스포… 손흥…  1        38 조중  기타     298   0.0201
 2 20220921 중앙일보 "[월…  정치  인터…  2        38 조중  정치면   787   0.0140
 3 20220921 중앙일보 "[사…  사회  여혐,… 3        38 조중  사회면   193   0.114 
 4 20220919 한겨레   "김현… 사회  장관,… 4        38 경한  사회면   336   0.0982
 5 20220919 경향신문 "‘쇳…  사회  쇳밥,… 5        38 경한  사회면   972   0.0195
 6 20220917 한겨레   "“여…  사회  여가…  6        38 경한  사회면   448   0.0424
 7 20220907 중앙일보 "피다… 정치  청년,… 7        36 조중  정치면   414   0.0145
 8 20220901 중앙일보 "'文 … 정치  골수,… 8        35 조중  정치면   407   0.0442
 9 20220831 조선일보 "[기…  정치  지리…  9        35 조중  정치면   196   0.0102
10 20220830 한겨레   "20대… 사회  20대,… 10       35 경한  사회면   258   0.0465
# … with 685 more rows, and 17 more variables: neutral <dbl>, positive <dbl>,
#   care_Total <dbl>, care <dbl>, care_neu <dbl>, fair_Total <dbl>, fair <dbl>,
#   fair_neu <dbl>, loyal_Total <dbl>, loyal <dbl>, loyal_neu <dbl>,
#   autho_Total <dbl>, autho <dbl>, autho_neu <dbl>, sanct_Total <dbl>,
#   sanct_neu <dbl>, sanct <dbl>
…
회귀분석

# p.value 지수로 출력된 것 숫자로 바꾸기
options(scipen = 999)

# press는 범주형변수이기 때문에, 속성을 숫자형으로 변환
pnko_mfd_df %>% mutate(press1 = recode(press, 
                                       조중 = 1,
                                       경한 = 2))

# A tidytable: 695 × 29
   일자     언론사   text   cat   키워드 ID     week press catSoc Total negative
   <chr>    <chr>    <chr>  <chr> <chr>  <fct> <dbl> <chr> <chr>  <dbl>    <dbl>
 1 20220923 중앙일보 "[서…  스포… 손흥…  1        38 조중  기타     298   0.0201
 2 20220921 중앙일보 "[월…  정치  인터…  2        38 조중  정치면   787   0.0140
 3 20220921 중앙일보 "[사…  사회  여혐,… 3        38 조중  사회면   193   0.114 
 4 20220919 한겨레   "김현… 사회  장관,… 4        38 경한  사회면   336   0.0982
 5 20220919 경향신문 "‘쇳…  사회  쇳밥,… 5        38 경한  사회면   972   0.0195
 6 20220917 한겨레   "“여…  사회  여가…  6        38 경한  사회면   448   0.0424
 7 20220907 중앙일보 "피다… 정치  청년,… 7        36 조중  정치면   414   0.0145
 8 20220901 중앙일보 "'文 … 정치  골수,… 8        35 조중  정치면   407   0.0442
 9 20220831 조선일보 "[기…  정치  지리…  9        35 조중  정치면   196   0.0102
10 20220830 한겨레   "20대… 사회  20대,… 10       35 경한  사회면   258   0.0465
# … with 685 more rows, and 18 more variables: neutral <dbl>, positive <dbl>,
#   care_Total <dbl>, care <dbl>, care_neu <dbl>, fair_Total <dbl>, fair <dbl>,
#   fair_neu <dbl>, loyal_Total <dbl>, loyal <dbl>, loyal_neu <dbl>,
#   autho_Total <dbl>, autho <dbl>, autho_neu <dbl>, sanct_Total <dbl>,
#   sanct_neu <dbl>, sanct <dbl>, press1 <dbl>
…
